<?xml version="1.0" encoding="UTF-8" standalone="no"?>
<!-- Created with Inkscape (http://www.inkscape.org/) -->

<svg
   xmlns:dc="http://purl.org/dc/elements/1.1/"
   xmlns:cc="http://creativecommons.org/ns#"
   xmlns:rdf="http://www.w3.org/1999/02/22-rdf-syntax-ns#"
   xmlns:svg="http://www.w3.org/2000/svg"
   xmlns="http://www.w3.org/2000/svg"
   xmlns:sodipodi="http://sodipodi.sourceforge.net/DTD/sodipodi-0.dtd"
   xmlns:inkscape="http://www.inkscape.org/namespaces/inkscape"
   width="210mm"
   height="297mm"
   id="svg2"
   version="1.1"
   inkscape:version="0.47pre4 r22446"
   sodipodi:docname="nubes.svg">
  <defs
     id="defs4">
    <inkscape:perspective
       sodipodi:type="inkscape:persp3d"
       inkscape:vp_x="0 : 526.18109 : 1"
       inkscape:vp_y="0 : 1000 : 0"
       inkscape:vp_z="744.09448 : 526.18109 : 1"
       inkscape:persp3d-origin="372.04724 : 350.78739 : 1"
       id="perspective10" />
    <inkscape:perspective
       id="perspective3610"
       inkscape:persp3d-origin="0.5 : 0.33333333 : 1"
       inkscape:vp_z="1 : 0.5 : 1"
       inkscape:vp_y="0 : 1000 : 0"
       inkscape:vp_x="0 : 0.5 : 1"
       sodipodi:type="inkscape:persp3d" />
    <inkscape:perspective
       id="perspective3648"
       inkscape:persp3d-origin="0.5 : 0.33333333 : 1"
       inkscape:vp_z="1 : 0.5 : 1"
       inkscape:vp_y="0 : 1000 : 0"
       inkscape:vp_x="0 : 0.5 : 1"
       sodipodi:type="inkscape:persp3d" />
    <inkscape:perspective
       id="perspective3687"
       inkscape:persp3d-origin="0.5 : 0.33333333 : 1"
       inkscape:vp_z="1 : 0.5 : 1"
       inkscape:vp_y="0 : 1000 : 0"
       inkscape:vp_x="0 : 0.5 : 1"
       sodipodi:type="inkscape:persp3d" />
    <inkscape:perspective
       id="perspective2827"
       inkscape:persp3d-origin="0.5 : 0.33333333 : 1"
       inkscape:vp_z="1 : 0.5 : 1"
       inkscape:vp_y="0 : 1000 : 0"
       inkscape:vp_x="0 : 0.5 : 1"
       sodipodi:type="inkscape:persp3d" />
  </defs>
  <sodipodi:namedview
     id="base"
     pagecolor="#0000ff"
     bordercolor="#666666"
     borderopacity="1.0"
     inkscape:pageopacity="0"
     inkscape:pageshadow="2"
     inkscape:zoom="0.7"
     inkscape:cx="67.711675"
     inkscape:cy="663.24498"
     inkscape:document-units="px"
     inkscape:current-layer="layer1"
     showgrid="false"
     inkscape:window-width="1280"
     inkscape:window-height="725"
     inkscape:window-x="0"
     inkscape:window-y="25"
     inkscape:window-maximized="1" />
  <metadata
     id="metadata7">
    <rdf:RDF>
      <cc:Work
         rdf:about="">
        <dc:format>image/svg+xml</dc:format>
        <dc:type
           rdf:resource="http://purl.org/dc/dcmitype/StillImage" />
        <dc:title />
      </cc:Work>
    </rdf:RDF>
  </metadata>
  <g
     inkscape:label="Capa 1"
     inkscape:groupmode="layer"
     id="layer1">
    <rect
       style="fill:#ff0000;fill-opacity:1;stroke:none"
       id="rect2818"
       width="880"
       height="1078.5714"
       x="-118.57143"
       y="-1.9235274" />
    <path
       style="fill:#ffffff;fill-opacity:0.7109375;fill-rule:evenodd;stroke:none"
       d="m 494.79688,316.1942 c -14.42158,0 -26.46435,11.14478 -29.34375,26 -1.17437,-0.0321 -2.35362,-0.0625 -3.54688,-0.0625 -0.54016,0 -1.07295,0.009 -1.60937,0.0156 -0.18839,-13.63994 -10.97062,-24.64063 -24.26563,-24.64063 -11.82623,0 -21.6787,8.69576 -23.84375,20.21875 -2.30468,-0.74699 -4.75254,-1.15625 -7.29687,-1.15625 -13.41263,0 -24.28125,11.19288 -24.28125,25 0,13.80712 10.86862,25 24.28125,25 5.7742,0 11.08204,-2.06687 15.25,-5.53125 10.08724,5.04373 25.05001,8.25 41.76562,8.25 0.32517,0 0.64492,-0.0132 0.96875,-0.0156 4.94908,6.74635 13.60159,11.21875 23.46875,11.21875 15.38508,0 27.85938,-10.86862 27.85938,-24.28125 0,-0.67896 -0.031,-1.35076 -0.0937,-2.01562 6.53994,-6.02727 10.6875,-15.04667 10.6875,-25.14063 0,-18.1465 -13.43146,-32.85937 -30,-32.85937 z"
       id="path2822-7"
       inkscape:export-filename="/home/md/proyectos/castle_vs_castle/cloud02.png"
       inkscape:export-xdpi="90"
       inkscape:export-ydpi="90" />
    <path
       style="fill:#ffffff;fill-opacity:0.5390625;fill-rule:evenodd;stroke:none"
       d="m 568.86384,434.7299 c -10.19347,0 -18.91384,6.47661 -22.51562,15.64063 -3.81424,-2.56626 -8.36891,-4.0625 -13.26563,-4.0625 -13.41263,0 -24.28125,11.19288 -24.28125,25 0,13.80712 10.86862,25 24.28125,25 4.71579,0 9.11804,-1.38683 12.84376,-3.78125 4.58768,0.99993 9.54787,1.73973 14.76562,2.15625 1.70532,16.37348 14.40638,29.09375 29.8125,29.09375 16.56854,0 30,-14.71288 30,-32.85938 0,-2.90327 -0.35455,-5.70942 -1,-8.39062 9.89655,-3.7258 16.82812,-12.3016 16.82812,-22.29688 0,-13.41263 -12.4743,-24.29687 -27.85937,-24.29687 -8.23342,0 -15.63455,3.12743 -20.73438,8.07812 -4.45256,-5.6522 -11.25501,-9.28125 -18.875,-9.28125 z"
       id="path2822-7-0"
       inkscape:export-filename="/home/md/proyectos/castle_vs_castle/cloud01.png"
       inkscape:export-xdpi="90"
       inkscape:export-ydpi="90" />
    <path
       style="fill:#ffffff;fill-opacity:0.45703125;fill-rule:evenodd;stroke:none"
       d="m 536.62053,143.79464 c -13.04483,0 -24.1498,9.1087 -28.28125,21.84375 -3.12624,-1.5088 -6.61579,-2.35937 -10.29687,-2.35937 -13.41263,0 -24.28125,11.19288 -24.28125,25 0,13.75861 10.793,24.92173 24.14062,25 7.20118,9.42268 27.88791,16.21875 52.28125,16.21875 20.74043,0 38.78633,-4.92213 48.15625,-12.1875 11.19215,-3.15124 19.29688,-12.30332 19.29688,-23.10938 0,-13.41263 -12.4743,-24.28125 -27.85938,-24.28125 -9.85357,0 -18.50063,4.45671 -23.45312,11.1875 0.18105,-1.45978 0.29687,-2.95457 0.29687,-4.46875 0,-18.1465 -13.43146,-32.84375 -30,-32.84375 z"
       id="path2816"
       inkscape:export-filename="/home/md/proyectos/castle_vs_castle/cloud00.png"
       inkscape:export-xdpi="90"
       inkscape:export-ydpi="90" />
    <path
       style="fill:#ffffff;fill-opacity:0.484375;stroke:none"
       d="m 177.70367,475.23215 c -18.39406,0 -33.29769,14.66581 -33.29769,32.77882 0,5.48359 1.38845,10.64692 3.80468,15.18958 -16.94283,2.27829 -29.70888,12.33105 -29.70888,24.3924 0,4.15677 1.52857,8.084 4.20943,11.52825 -13.75148,4.61618 -22.720139,12.17229 -22.720139,20.70632 0,14.05319 24.315369,25.45616 54.290889,25.45616 12.22442,0 23.49573,-1.89902 32.56913,-5.09618 9.42922,3.26079 19.9084,5.09618 30.95013,5.09618 10.61972,0 20.72527,-1.69561 29.87078,-4.7251 14.70811,6.29611 38.38848,10.36553 65.11129,10.36553 30.86821,0 57.68624,-5.44502 71.29052,-13.45787 5.23801,4.20501 11.72209,6.67946 18.75356,6.67946 17.37217,0 31.46281,-15.17922 31.46281,-33.91681 0,-17.53592 -12.34914,-31.96509 -28.17082,-33.74364 -4.47757,-15.61546 -23.29171,-27.3363 -45.84504,-27.3363 -10.17007,0 -19.57144,2.38302 -27.25337,6.43207 -1.47393,-12.47257 -16.33305,-22.26486 -34.431,-22.26486 -13.50098,0 -25.16183,5.46007 -30.84219,13.4084 -13.2263,-9.03259 -30.73865,-14.54638 -49.94654,-14.54638 -3.60274,0 -7.13815,0.21982 -10.60453,0.59373 -5.57467,-10.43221 -16.69023,-17.53976 -29.49302,-17.53976 z"
       id="path3641" />
    <path
       style="fill:#ffffff;fill-opacity:0.6640625;stroke:none"
       d="m 148.17207,100.94644 c -30.80767,0 -55.803779,16.3745 -55.803779,36.59058 0,0.65634 0.02349,1.31756 0.07547,1.96541 -9.962548,2.01206 -17.682418,7.43724 -20.026963,14.21889 -13.563516,2.89391 -23.750569,15.14991 -23.750569,29.84511 0,6.38919 1.916374,12.32706 5.208017,17.22767 -5.161127,-0.73184 -10.555042,-1.14042 -16.12724,-1.14042 -35.5055309,0 -64.34874,15.81021 -64.96183,35.42591 -18.301689,5.08669 -29.914659,12.67342 -29.914659,21.15849 0,15.31522 37.848027,27.70985 84.535934,27.70985 19.553852,0 37.532198,-2.19117 51.853732,-5.8477 14.319121,5.53172 38.786127,9.19618 66.597197,9.19618 22.20573,0 42.29953,-2.33756 56.785,-6.09035 10.46349,5.19931 23.4603,8.2984 37.53797,8.2984 34.61893,0 62.67232,-18.61622 62.67232,-41.58905 0,-10.3533 -5.71474,-19.8234 -15.14602,-27.10324 2.99065,-6.01587 4.80547,-14.01638 4.80547,-22.80847 0,-18.68456 -8.25341,-33.84872 -18.41676,-33.84872 -0.39424,0 -0.76926,0.0279 -1.15733,0.0728 -0.35442,-15.39665 -17.46146,-27.8069 -38.51921,-27.8069 -9.27443,0 -17.78072,2.4225 -24.42987,6.43004 -1.98211,-1.25007 -4.0084,-2.44076 -6.11376,-3.54259 0.0422,-0.58445 0.0755,-1.17999 0.0755,-1.7713 0,-20.21608 -24.97095,-36.59058 -55.77862,-36.59058 z"
       id="path3660" />
  </g>
</svg>
