<?xml version="1.0" encoding="UTF-8" standalone="no"?>
<!-- Created with Inkscape (http://www.inkscape.org/) -->

<svg
   xmlns:dc="http://purl.org/dc/elements/1.1/"
   xmlns:cc="http://creativecommons.org/ns#"
   xmlns:rdf="http://www.w3.org/1999/02/22-rdf-syntax-ns#"
   xmlns:svg="http://www.w3.org/2000/svg"
   xmlns="http://www.w3.org/2000/svg"
   xmlns:xlink="http://www.w3.org/1999/xlink"
   xmlns:sodipodi="http://sodipodi.sourceforge.net/DTD/sodipodi-0.dtd"
   xmlns:inkscape="http://www.inkscape.org/namespaces/inkscape"
   width="210mm"
   height="297mm"
   id="svg2"
   version="1.1"
   inkscape:version="0.47pre4 r22446"
   sodipodi:docname="display_game.svg">
  <defs
     id="defs4">
    <linearGradient
       id="linearGradient3720">
      <stop
         id="stop3722"
         offset="0"
         style="stop-color:#363636;stop-opacity:1;" />
      <stop
         id="stop3724"
         offset="1"
         style="stop-color:#0f0f0f;stop-opacity:1;" />
    </linearGradient>
    <linearGradient
       id="linearGradient3590">
      <stop
         style="stop-color:#00b700;stop-opacity:1;"
         offset="0"
         id="stop3592" />
      <stop
         style="stop-color:#003300;stop-opacity:1;"
         offset="1"
         id="stop3594" />
    </linearGradient>
    <inkscape:perspective
       sodipodi:type="inkscape:persp3d"
       inkscape:vp_x="0 : 526.18109 : 1"
       inkscape:vp_y="0 : 1000 : 0"
       inkscape:vp_z="744.09448 : 526.18109 : 1"
       inkscape:persp3d-origin="372.04724 : 350.78739 : 1"
       id="perspective10" />
    <inkscape:perspective
       id="perspective3614"
       inkscape:persp3d-origin="0.5 : 0.33333333 : 1"
       inkscape:vp_z="1 : 0.5 : 1"
       inkscape:vp_y="0 : 1000 : 0"
       inkscape:vp_x="0 : 0.5 : 1"
       sodipodi:type="inkscape:persp3d" />
    <radialGradient
       inkscape:collect="always"
       xlink:href="#linearGradient3590-5"
       id="radialGradient3596-3"
       cx="251.29527"
       cy="611.42413"
       fx="251.29527"
       fy="611.42413"
       r="47.500004"
       gradientTransform="matrix(1,0,0,0.84210519,0,96.540695)"
       gradientUnits="userSpaceOnUse" />
    <linearGradient
       id="linearGradient3590-5">
      <stop
         style="stop-color:#f60000;stop-opacity:1;"
         offset="0"
         id="stop3592-9" />
      <stop
         style="stop-color:#9d0000;stop-opacity:1;"
         offset="1"
         id="stop3594-2" />
    </linearGradient>
    <radialGradient
       inkscape:collect="always"
       xlink:href="#linearGradient3590-5"
       id="radialGradient3651"
       gradientUnits="userSpaceOnUse"
       gradientTransform="matrix(1,0,0,0.84210519,0,96.540695)"
       cx="251.29527"
       cy="611.42413"
       fx="251.29527"
       fy="611.42413"
       r="47.500004" />
    <radialGradient
       inkscape:collect="always"
       xlink:href="#linearGradient3590"
       id="radialGradient3657"
       gradientUnits="userSpaceOnUse"
       gradientTransform="matrix(1,0,0,0.84210519,166.56186,163.19304)"
       cx="251.29527"
       cy="611.42413"
       fx="251.29527"
       fy="611.42413"
       r="47.500004" />
    <inkscape:perspective
       id="perspective3688"
       inkscape:persp3d-origin="0.5 : 0.33333333 : 1"
       inkscape:vp_z="1 : 0.5 : 1"
       inkscape:vp_y="0 : 1000 : 0"
       inkscape:vp_x="0 : 0.5 : 1"
       sodipodi:type="inkscape:persp3d" />
    <radialGradient
       inkscape:collect="always"
       xlink:href="#linearGradient3590-1"
       id="radialGradient3657-4"
       gradientUnits="userSpaceOnUse"
       gradientTransform="matrix(1,0,0,0.84210519,166.56186,163.19304)"
       cx="251.29527"
       cy="611.42413"
       fx="251.29527"
       fy="611.42413"
       r="47.500004" />
    <linearGradient
       id="linearGradient3590-1">
      <stop
         style="stop-color:#0000ff;stop-opacity:1;"
         offset="0"
         id="stop3592-91" />
      <stop
         style="stop-color:#000028;stop-opacity:1;"
         offset="1"
         id="stop3594-26" />
    </linearGradient>
    <inkscape:perspective
       id="perspective3734"
       inkscape:persp3d-origin="0.5 : 0.33333333 : 1"
       inkscape:vp_z="1 : 0.5 : 1"
       inkscape:vp_y="0 : 1000 : 0"
       inkscape:vp_x="0 : 0.5 : 1"
       sodipodi:type="inkscape:persp3d" />
    <radialGradient
       inkscape:collect="always"
       xlink:href="#linearGradient3720"
       id="radialGradient3657-4-0"
       gradientUnits="userSpaceOnUse"
       gradientTransform="matrix(1,0,0,0.84210519,166.56186,163.19304)"
       cx="251.29527"
       cy="611.42413"
       fx="251.29527"
       fy="611.42413"
       r="47.500004" />
    <linearGradient
       id="linearGradient3590-1-4">
      <stop
         style="stop-color:#0000ff;stop-opacity:1;"
         offset="0"
         id="stop3592-91-2" />
      <stop
         style="stop-color:#000028;stop-opacity:1;"
         offset="1"
         id="stop3594-26-5" />
    </linearGradient>
  </defs>
  <sodipodi:namedview
     id="base"
     pagecolor="#ffffff"
     bordercolor="#666666"
     borderopacity="1.0"
     inkscape:pageopacity="0.0"
     inkscape:pageshadow="2"
     inkscape:zoom="0.98994949"
     inkscape:cx="-41.827459"
     inkscape:cy="295.63817"
     inkscape:document-units="px"
     inkscape:current-layer="layer1"
     showgrid="false"
     inkscape:window-width="1280"
     inkscape:window-height="725"
     inkscape:window-x="0"
     inkscape:window-y="25"
     inkscape:window-maximized="1" />
  <metadata
     id="metadata7">
    <rdf:RDF>
      <cc:Work
         rdf:about="">
        <dc:format>image/svg+xml</dc:format>
        <dc:type
           rdf:resource="http://purl.org/dc/dcmitype/StillImage" />
        <dc:title></dc:title>
      </cc:Work>
    </rdf:RDF>
  </metadata>
  <g
     inkscape:label="Capa 1"
     inkscape:groupmode="layer"
     id="layer1">
    <g
       id="g3647"
       transform="translate(-135,-15)">
      <rect
         ry="1.5054783"
         y="572.92407"
         x="205.29523"
         height="77.000107"
         width="92.000114"
         id="rect2816"
         style="color:#000000;fill:url(#radialGradient3651);fill-opacity:1.0;stroke:#c10000;stroke-width:2.99989056999999981;stroke-miterlimit:4;stroke-opacity:1;stroke-dasharray:none;marker:none;visibility:visible;display:inline;overflow:visible;enable-background:accumulate" />
      <path
         sodipodi:nodetypes="cc"
         id="path3604"
         d="m 208.28571,610.21932 86.64286,0"
         style="fill:#ffffff;fill-opacity:0;stroke:#710000;stroke-width:1;stroke-linecap:round;stroke-linejoin:miter;stroke-miterlimit:4;stroke-opacity:1;stroke-dasharray:1, 3;stroke-dashoffset:0" />
    </g>
    <g
       id="g3653"
       transform="translate(-162.85714,-78.571429)">
      <rect
         ry="1.5054783"
         y="639.57642"
         x="371.85709"
         height="77.000107"
         width="92.000114"
         id="rect2816-6"
         style="color:#000000;fill:url(#radialGradient3657);fill-opacity:1;stroke:#005700;stroke-width:2.99989056999999981;stroke-miterlimit:4;stroke-opacity:1;stroke-dasharray:none;marker:none;visibility:visible;display:inline;overflow:visible;enable-background:accumulate" />
      <path
         sodipodi:nodetypes="cc"
         id="path3604-7"
         d="m 374.84757,676.87167 86.64286,0"
         style="fill:#ffffff;fill-opacity:0;stroke:#005700;stroke-width:1;stroke-linecap:round;stroke-linejoin:miter;stroke-miterlimit:4;stroke-opacity:1;stroke-dasharray:1, 3;stroke-dashoffset:0" />
    </g>
    <g
       id="g3653-8"
       transform="translate(-189.05759,32.349076)">
      <rect
         ry="1.5054783"
         y="639.57642"
         x="371.85709"
         height="77.000107"
         width="92.000114"
         id="rect2816-6-2"
         style="color:#000000;fill:url(#radialGradient3657-4);fill-opacity:1;stroke:#000054;stroke-width:2.99989056999999981;stroke-miterlimit:4;stroke-opacity:1;stroke-dasharray:none;marker:none;visibility:visible;display:inline;overflow:visible;enable-background:accumulate" />
      <path
         sodipodi:nodetypes="cc"
         id="path3604-7-1"
         d="m 374.84757,676.87167 86.64286,0"
         style="fill:#ffffff;fill-opacity:0;stroke:#000039;stroke-width:1;stroke-linecap:round;stroke-linejoin:miter;stroke-miterlimit:4;stroke-opacity:1;stroke-dasharray:1, 3;stroke-dashoffset:0" />
    </g>
    <g
       id="g3653-8-7"
       transform="translate(-316.42857,27.857142)">
      <rect
         ry="1.5054783"
         y="639.57642"
         x="371.85709"
         height="77.000107"
         width="92.000114"
         id="rect2816-6-2-9"
         style="color:#000000;fill:url(#radialGradient3657-4-0);fill-opacity:1.0;stroke:#393939;stroke-width:2.99989056999999981;stroke-miterlimit:4;stroke-opacity:1;stroke-dasharray:none;marker:none;visibility:visible;display:inline;overflow:visible;enable-background:accumulate" />
      <path
         sodipodi:nodetypes="cc"
         id="path3604-7-1-9"
         d="m 374.84757,676.87167 86.64286,0"
         style="fill:#000000;fill-opacity:0;stroke:#111111;stroke-width:1;stroke-linecap:round;stroke-linejoin:miter;stroke-miterlimit:4;stroke-opacity:1;stroke-dasharray:1, 3;stroke-dashoffset:0" />
    </g>
  </g>
</svg>
